module money_movement_service

go 1.21.3

require google.golang.org/grpc v1.62.0

require (
	github.com/davecgh/go-spew v1.1.1 // indirect
	github.com/eapache/go-resiliency v1.6.0 // indirect
	github.com/eapache/go-xerial-snappy v0.0.0-20230731223053-c322873962e3 // indirect
	github.com/eapache/queue v1.1.0 // indirect
	github.com/golang/snappy v0.0.4 // indirect
	github.com/hashicorp/errwrap v1.0.0 // indirect
	github.com/hashicorp/go-multierror v1.1.1 // indirect
	github.com/hashicorp/go-uuid v1.0.3 // indirect
	github.com/jcmturner/aescts/v2 v2.0.0 // indirect
	github.com/jcmturner/dnsutils/v2 v2.0.0 // indirect
	github.com/jcmturner/gofork v1.7.6 // indirect
	github.com/jcmturner/gokrb5/v8 v8.4.4 // indirect
	github.com/jcmturner/rpc/v2 v2.0.3 // indirect
	github.com/klauspost/compress v1.17.7 // indirect
	github.com/pierrec/lz4/v4 v4.1.21 // indirect
	github.com/rcrowley/go-metrics v0.0.0-20201227073835-cf1acfcdf475 // indirect
	golang.org/x/crypto v0.19.0 // indirect
)

require (
	github.com/IBM/sarama v1.43.0
	github.com/go-sql-driver/mysql v1.7.1
	github.com/golang/protobuf v1.5.3 // indirect
	github.com/google/uuid v1.6.0
	golang.org/x/net v0.21.0 // indirect
	golang.org/x/sys v0.17.0 // indirect
	golang.org/x/text v0.14.0 // indirect
	google.golang.org/genproto/googleapis/rpc v0.0.0-20240123012728-ef4313101c80 // indirect
	google.golang.org/protobuf v1.32.0
)
